{
    "compilerOptions": {
        "baseUrl": ".",
        "paths": {
            "engine": [
                "./engine/app.js"
            ],
            "threejs": [
                "./engine/threejs.js"
            ]
        }
    }
}